{
    "type": "Root",
    "cxx_class": "gem5::Root",
    "name": null,
    "path": "root",
    "eventq_index": 0,
    "full_system": false,
    "sim_quantum": 0,
    "time_sync_enable": false,
    "time_sync_period": 100000000000,
    "time_sync_spin_threshold": 100000000,
    "system": {
        "type": "System",
        "cxx_class": "gem5::System",
        "name": "system",
        "path": "system",
        "auto_unlink_shared_backstore": false,
        "cache_line_size": 64,
        "eventq_index": 0,
        "exit_on_work_items": false,
        "init_param": 0,
        "m5ops_base": 0,
        "mem_mode": "timing",
        "mem_ranges": [
            "0:536870912"
        ],
        "memories": [
            "system.mem_ctrl.dram"
        ],
        "mmap_using_noreserve": false,
        "multi_thread": false,
        "num_work_ids": 16,
        "readfile": "",
        "redirect_paths": [],
        "shadow_rom_ranges": [],
        "shared_backstore": "",
        "symbolfile": "",
        "thermal_components": [],
        "thermal_model": null,
        "work_begin_ckpt_count": 0,
        "work_begin_cpu_id_exit": -1,
        "work_begin_exit_count": 0,
        "work_cpus_ckpt_count": 0,
        "work_end_ckpt_count": 0,
        "work_end_exit_count": 0,
        "work_item_id": -1,
        "workload": {
            "type": "RiscvEmuLinux",
            "cxx_class": "gem5::RiscvISA::EmuLinux",
            "name": "workload",
            "path": "system.workload",
            "eventq_index": 0,
            "remote_gdb_port": 7000,
            "wait_for_remote_gdb": false
        },
        "clk_domain": {
            "type": "SrcClockDomain",
            "cxx_class": "gem5::SrcClockDomain",
            "name": "clk_domain",
            "path": "system.clk_domain",
            "clock": [
                1000
            ],
            "domain_id": -1,
            "eventq_index": 0,
            "init_perf_level": 0,
            "voltage_domain": {
                "type": "VoltageDomain",
                "cxx_class": "gem5::VoltageDomain",
                "name": "voltage_domain",
                "path": "system.clk_domain.voltage_domain",
                "eventq_index": 0,
                "voltage": [
                    1.0
                ]
            }
        },
        "cpu": {
            "type": "BaseTimingSimpleCPU",
            "cxx_class": "gem5::TimingSimpleCPU",
            "name": "cpu",
            "path": "system.cpu",
            "branchPred": null,
            "checker": null,
            "clk_domain": "system.clk_domain",
            "cpu_id": -1,
            "decoder": [
                {
                    "type": "RiscvDecoder",
                    "cxx_class": "gem5::RiscvISA::Decoder",
                    "name": "decoder",
                    "path": "system.cpu.decoder",
                    "eventq_index": 0,
                    "isa": "system.cpu.isa"
                }
            ],
            "do_checkpoint_insts": true,
            "do_statistics_insts": true,
            "eventq_index": 0,
            "function_trace": false,
            "function_trace_start": 0,
            "interrupts": [
                {
                    "type": "RiscvInterrupts",
                    "cxx_class": "gem5::RiscvISA::Interrupts",
                    "name": "interrupts",
                    "path": "system.cpu.interrupts",
                    "eventq_index": 0
                }
            ],
            "isa": [
                {
                    "type": "RiscvISA",
                    "cxx_class": "gem5::RiscvISA::ISA",
                    "name": "isa",
                    "path": "system.cpu.isa",
                    "check_alignment": false,
                    "eventq_index": 0
                }
            ],
            "max_insts_all_threads": 0,
            "max_insts_any_thread": 0,
            "mmu": {
                "type": "RiscvMMU",
                "cxx_class": "gem5::RiscvISA::MMU",
                "name": "mmu",
                "path": "system.cpu.mmu",
                "dtb": {
                    "type": "RiscvTLB",
                    "cxx_class": "gem5::RiscvISA::TLB",
                    "name": "dtb",
                    "path": "system.cpu.mmu.dtb",
                    "entry_type": "data",
                    "eventq_index": 0,
                    "next_level": null,
                    "pma_checker": "system.cpu.mmu.pma_checker",
                    "pmp": "system.cpu.mmu.pmp",
                    "size": 64,
                    "walker": {
                        "type": "RiscvPagetableWalker",
                        "cxx_class": "gem5::RiscvISA::Walker",
                        "name": "walker",
                        "path": "system.cpu.mmu.dtb.walker",
                        "clk_domain": "system.clk_domain",
                        "eventq_index": 0,
                        "num_squash_per_cycle": 4,
                        "pma_checker": "system.cpu.mmu.pma_checker",
                        "pmp": "system.cpu.mmu.pmp",
                        "power_model": [],
                        "power_state": {
                            "type": "PowerState",
                            "cxx_class": "gem5::PowerState",
                            "name": "power_state",
                            "path": "system.cpu.mmu.dtb.walker.power_state",
                            "clk_gate_bins": 20,
                            "clk_gate_max": 1000000000000,
                            "clk_gate_min": 1000,
                            "default_state": "UNDEFINED",
                            "eventq_index": 0,
                            "leaders": [],
                            "possible_states": []
                        },
                        "system": "system"
                    }
                },
                "eventq_index": 0,
                "itb": {
                    "type": "RiscvTLB",
                    "cxx_class": "gem5::RiscvISA::TLB",
                    "name": "itb",
                    "path": "system.cpu.mmu.itb",
                    "entry_type": "instruction",
                    "eventq_index": 0,
                    "next_level": null,
                    "pma_checker": "system.cpu.mmu.pma_checker",
                    "pmp": "system.cpu.mmu.pmp",
                    "size": 64,
                    "walker": {
                        "type": "RiscvPagetableWalker",
                        "cxx_class": "gem5::RiscvISA::Walker",
                        "name": "walker",
                        "path": "system.cpu.mmu.itb.walker",
                        "clk_domain": "system.clk_domain",
                        "eventq_index": 0,
                        "num_squash_per_cycle": 4,
                        "pma_checker": "system.cpu.mmu.pma_checker",
                        "pmp": "system.cpu.mmu.pmp",
                        "power_model": [],
                        "power_state": {
                            "type": "PowerState",
                            "cxx_class": "gem5::PowerState",
                            "name": "power_state",
                            "path": "system.cpu.mmu.itb.walker.power_state",
                            "clk_gate_bins": 20,
                            "clk_gate_max": 1000000000000,
                            "clk_gate_min": 1000,
                            "default_state": "UNDEFINED",
                            "eventq_index": 0,
                            "leaders": [],
                            "possible_states": []
                        },
                        "system": "system"
                    }
                },
                "pma_checker": {
                    "type": "PMAChecker",
                    "cxx_class": "gem5::PMAChecker",
                    "name": "pma_checker",
                    "path": "system.cpu.mmu.pma_checker",
                    "eventq_index": 0,
                    "uncacheable": []
                },
                "pmp": {
                    "type": "PMP",
                    "cxx_class": "gem5::PMP",
                    "name": "pmp",
                    "path": "system.cpu.mmu.pmp",
                    "eventq_index": 0,
                    "pmp_entries": 16
                }
            },
            "numThreads": 1,
            "power_gating_on_idle": false,
            "power_model": [],
            "power_state": {
                "type": "PowerState",
                "cxx_class": "gem5::PowerState",
                "name": "power_state",
                "path": "system.cpu.power_state",
                "clk_gate_bins": 20,
                "clk_gate_max": 1000000000000,
                "clk_gate_min": 1000,
                "default_state": "UNDEFINED",
                "eventq_index": 0,
                "leaders": [],
                "possible_states": [
                    "ON",
                    "CLK_GATED",
                    "OFF"
                ]
            },
            "progress_interval": 0,
            "pwr_gating_latency": 300,
            "simpoint_start_insts": [],
            "socket_id": 0,
            "switched_out": false,
            "syscallRetryLatency": 10000,
            "system": "system",
            "tracer": {
                "type": "ExeTracer",
                "cxx_class": "gem5::trace::ExeTracer",
                "name": "tracer",
                "path": "system.cpu.tracer",
                "eventq_index": 0
            },
            "workload": [
                {
                    "type": "Process",
                    "cxx_class": "gem5::Process",
                    "name": "workload",
                    "path": "system.cpu.workload",
                    "cmd": [
                        "mibench/security/blowfish/bf_REF",
                        "e",
                        "mibench/security/blowfish/input_small.asc",
                        "out/m5out/blowfish_output_small.enc",
                        "1234567890abcdeffedcba0987654321"
                    ],
                    "cwd": "/root",
                    "drivers": [],
                    "egid": 100,
                    "env": [],
                    "errout": "cerr",
                    "euid": 100,
                    "eventq_index": 0,
                    "executable": "",
                    "gid": 100,
                    "input": "cin",
                    "kvmInSE": false,
                    "maxStackSize": 67108864,
                    "output": "cout",
                    "pgid": 100,
                    "pid": 100,
                    "ppid": 0,
                    "release": "5.1.0",
                    "simpoint": 0,
                    "system": "system",
                    "uid": 100,
                    "useArchPT": false
                }
            ],
            "dcache": {
                "type": "Cache",
                "cxx_class": "gem5::Cache",
                "name": "dcache",
                "path": "system.cpu.dcache",
                "addr_ranges": [
                    "0:18446744073709551615"
                ],
                "assoc": 4,
                "clk_domain": "system.clk_domain",
                "clusivity": "mostly_incl",
                "compressor": null,
                "data_latency": 2,
                "demand_mshr_reserve": 1,
                "eventq_index": 0,
                "is_read_only": false,
                "max_miss_count": 0,
                "move_contractions": true,
                "mshrs": 4,
                "power_model": [],
                "power_state": {
                    "type": "PowerState",
                    "cxx_class": "gem5::PowerState",
                    "name": "power_state",
                    "path": "system.cpu.dcache.power_state",
                    "clk_gate_bins": 20,
                    "clk_gate_max": 1000000000000,
                    "clk_gate_min": 1000,
                    "default_state": "UNDEFINED",
                    "eventq_index": 0,
                    "leaders": [],
                    "possible_states": []
                },
                "prefetch_on_access": false,
                "prefetch_on_pf_hit": false,
                "prefetcher": null,
                "replace_expansions": true,
                "replacement_policy": {
                    "type": "LRURP",
                    "cxx_class": "gem5::replacement_policy::LRU",
                    "name": "replacement_policy",
                    "path": "system.cpu.dcache.replacement_policy",
                    "eventq_index": 0
                },
                "response_latency": 2,
                "sequential_access": false,
                "size": 32768,
                "system": "system",
                "tag_latency": 2,
                "tags": {
                    "type": "BaseSetAssoc",
                    "cxx_class": "gem5::BaseSetAssoc",
                    "name": "tags",
                    "path": "system.cpu.dcache.tags",
                    "assoc": 4,
                    "block_size": 64,
                    "clk_domain": "system.clk_domain",
                    "entry_size": 64,
                    "eventq_index": 0,
                    "indexing_policy": {
                        "type": "SetAssociative",
                        "cxx_class": "gem5::SetAssociative",
                        "name": "indexing_policy",
                        "path": "system.cpu.dcache.tags.indexing_policy",
                        "assoc": 4,
                        "entry_size": 64,
                        "eventq_index": 0,
                        "size": 32768
                    },
                    "power_model": [],
                    "power_state": {
                        "type": "PowerState",
                        "cxx_class": "gem5::PowerState",
                        "name": "power_state",
                        "path": "system.cpu.dcache.tags.power_state",
                        "clk_gate_bins": 20,
                        "clk_gate_max": 1000000000000,
                        "clk_gate_min": 1000,
                        "default_state": "UNDEFINED",
                        "eventq_index": 0,
                        "leaders": [],
                        "possible_states": []
                    },
                    "replacement_policy": "system.cpu.dcache.replacement_policy",
                    "sequential_access": false,
                    "size": 32768,
                    "system": "system",
                    "tag_latency": 2,
                    "warmup_percentage": 0
                },
                "tgts_per_mshr": 20,
                "warmup_percentage": 0,
                "write_allocator": null,
                "write_buffers": 8,
                "writeback_clean": false,
                "cpu_side": {
                    "role": "GEM5 RESPONDER",
                    "peer": "system.cpu.dcache_port",
                    "is_source": "False"
                },
                "mem_side": {
                    "role": "GEM5 REQUESTOR",
                    "peer": "system.membus.cpu_side_ports[1]",
                    "is_source": "True"
                }
            },
            "icache": {
                "type": "Cache",
                "cxx_class": "gem5::Cache",
                "name": "icache",
                "path": "system.cpu.icache",
                "addr_ranges": [
                    "0:18446744073709551615"
                ],
                "assoc": 4,
                "clk_domain": "system.clk_domain",
                "clusivity": "mostly_incl",
                "compressor": null,
                "data_latency": 2,
                "demand_mshr_reserve": 1,
                "eventq_index": 0,
                "is_read_only": false,
                "max_miss_count": 0,
                "move_contractions": true,
                "mshrs": 4,
                "power_model": [],
                "power_state": {
                    "type": "PowerState",
                    "cxx_class": "gem5::PowerState",
                    "name": "power_state",
                    "path": "system.cpu.icache.power_state",
                    "clk_gate_bins": 20,
                    "clk_gate_max": 1000000000000,
                    "clk_gate_min": 1000,
                    "default_state": "UNDEFINED",
                    "eventq_index": 0,
                    "leaders": [],
                    "possible_states": []
                },
                "prefetch_on_access": false,
                "prefetch_on_pf_hit": false,
                "prefetcher": null,
                "replace_expansions": true,
                "replacement_policy": {
                    "type": "LRURP",
                    "cxx_class": "gem5::replacement_policy::LRU",
                    "name": "replacement_policy",
                    "path": "system.cpu.icache.replacement_policy",
                    "eventq_index": 0
                },
                "response_latency": 2,
                "sequential_access": false,
                "size": 8192,
                "system": "system",
                "tag_latency": 2,
                "tags": {
                    "type": "BaseSetAssoc",
                    "cxx_class": "gem5::BaseSetAssoc",
                    "name": "tags",
                    "path": "system.cpu.icache.tags",
                    "assoc": 4,
                    "block_size": 64,
                    "clk_domain": "system.clk_domain",
                    "entry_size": 64,
                    "eventq_index": 0,
                    "indexing_policy": {
                        "type": "SetAssociative",
                        "cxx_class": "gem5::SetAssociative",
                        "name": "indexing_policy",
                        "path": "system.cpu.icache.tags.indexing_policy",
                        "assoc": 4,
                        "entry_size": 64,
                        "eventq_index": 0,
                        "size": 8192
                    },
                    "power_model": [],
                    "power_state": {
                        "type": "PowerState",
                        "cxx_class": "gem5::PowerState",
                        "name": "power_state",
                        "path": "system.cpu.icache.tags.power_state",
                        "clk_gate_bins": 20,
                        "clk_gate_max": 1000000000000,
                        "clk_gate_min": 1000,
                        "default_state": "UNDEFINED",
                        "eventq_index": 0,
                        "leaders": [],
                        "possible_states": []
                    },
                    "replacement_policy": "system.cpu.icache.replacement_policy",
                    "sequential_access": false,
                    "size": 8192,
                    "system": "system",
                    "tag_latency": 2,
                    "warmup_percentage": 0
                },
                "tgts_per_mshr": 20,
                "warmup_percentage": 0,
                "write_allocator": null,
                "write_buffers": 8,
                "writeback_clean": false,
                "cpu_side": {
                    "role": "GEM5 RESPONDER",
                    "peer": "system.cpu.icache_port",
                    "is_source": "False"
                },
                "mem_side": {
                    "role": "GEM5 REQUESTOR",
                    "peer": "system.membus.cpu_side_ports[0]",
                    "is_source": "True"
                }
            },
            "dcache_port": {
                "role": "GEM5 REQUESTOR",
                "peer": "system.cpu.dcache.cpu_side",
                "is_source": "True"
            },
            "icache_port": {
                "role": "GEM5 REQUESTOR",
                "peer": "system.cpu.icache.cpu_side",
                "is_source": "True"
            }
        },
        "dvfs_handler": {
            "type": "DVFSHandler",
            "cxx_class": "gem5::DVFSHandler",
            "name": "dvfs_handler",
            "path": "system.dvfs_handler",
            "domains": [],
            "enable": false,
            "eventq_index": 0,
            "sys_clk_domain": "system.clk_domain",
            "transition_latency": 100000000
        },
        "mem_ctrl": {
            "type": "MemCtrl",
            "cxx_class": "gem5::memory::MemCtrl",
            "name": "mem_ctrl",
            "path": "system.mem_ctrl",
            "clk_domain": "system.clk_domain",
            "command_window": 10000,
            "disable_sanity_check": false,
            "dram": {
                "type": "DRAMInterface",
                "cxx_class": "gem5::memory::DRAMInterface",
                "name": "dram",
                "path": "system.mem_ctrl.dram",
                "IDD0": 0.055,
                "IDD02": 0.0,
                "IDD2N": 0.032,
                "IDD2N2": 0.0,
                "IDD2P0": 0.0,
                "IDD2P02": 0.0,
                "IDD2P1": 0.032,
                "IDD2P12": 0.0,
                "IDD3N": 0.038,
                "IDD3N2": 0.0,
                "IDD3P0": 0.0,
                "IDD3P02": 0.0,
                "IDD3P1": 0.038,
                "IDD3P12": 0.0,
                "IDD4R": 0.157,
                "IDD4R2": 0.0,
                "IDD4W": 0.125,
                "IDD4W2": 0.0,
                "IDD5": 0.23500000000000001,
                "IDD52": 0.0,
                "IDD6": 0.02,
                "IDD62": 0.0,
                "VDD": 1.5,
                "VDD2": 0.0,
                "activation_limit": 4,
                "addr_mapping": "RoRaBaCoCh",
                "bank_groups_per_rank": 0,
                "banks_per_rank": 8,
                "beats_per_clock": 2,
                "burst_length": 8,
                "clk_domain": "system.clk_domain",
                "conf_table_reported": true,
                "data_clock_sync": false,
                "device_bus_width": 8,
                "device_rowbuffer_size": 1024,
                "device_size": 536870912,
                "devices_per_rank": 8,
                "dll": true,
                "enable_dram_powerdown": false,
                "eventq_index": 0,
                "image_file": "",
                "in_addr_map": true,
                "kvm_map": true,
                "max_accesses_per_row": 16,
                "null": false,
                "page_policy": "open_adaptive",
                "power_model": [],
                "power_state": {
                    "type": "PowerState",
                    "cxx_class": "gem5::PowerState",
                    "name": "power_state",
                    "path": "system.mem_ctrl.dram.power_state",
                    "clk_gate_bins": 20,
                    "clk_gate_max": 1000000000000,
                    "clk_gate_min": 1000,
                    "default_state": "UNDEFINED",
                    "eventq_index": 0,
                    "leaders": [],
                    "possible_states": []
                },
                "range": "0:536870912",
                "ranks_per_channel": 2,
                "read_buffer_size": 32,
                "tAAD": 1250,
                "tBURST": 5000,
                "tBURST_MAX": 5000,
                "tBURST_MIN": 5000,
                "tCCD_L": 0,
                "tCCD_L_WR": 0,
                "tCK": 1250,
                "tCL": 13750,
                "tCS": 2500,
                "tCWL": 13750,
                "tPPD": 0,
                "tRAS": 35000,
                "tRCD": 13750,
                "tRCD_WR": 13750,
                "tREFI": 7800000,
                "tRFC": 260000,
                "tRP": 13750,
                "tRRD": 6000,
                "tRRD_L": 0,
                "tRTP": 7500,
                "tRTW": 2500,
                "tWR": 15000,
                "tWTR": 7500,
                "tWTR_L": 7500,
                "tXAW": 30000,
                "tXP": 6000,
                "tXPDLL": 0,
                "tXS": 270000,
                "tXSDLL": 0,
                "two_cycle_activate": false,
                "write_buffer_size": 64
            },
            "eventq_index": 0,
            "mem_sched_policy": "frfcfs",
            "min_reads_per_switch": 16,
            "min_writes_per_switch": 16,
            "power_model": [],
            "power_state": {
                "type": "PowerState",
                "cxx_class": "gem5::PowerState",
                "name": "power_state",
                "path": "system.mem_ctrl.power_state",
                "clk_gate_bins": 20,
                "clk_gate_max": 1000000000000,
                "clk_gate_min": 1000,
                "default_state": "UNDEFINED",
                "eventq_index": 0,
                "leaders": [],
                "possible_states": []
            },
            "qos_policy": null,
            "qos_priorities": 1,
            "qos_priority_escalation": false,
            "qos_q_policy": "fifo",
            "qos_requestors": [
                "",
                "",
                "",
                "",
                "",
                "",
                "",
                "",
                "",
                "",
                "",
                "",
                "",
                "",
                "",
                ""
            ],
            "qos_syncro_scheduler": false,
            "qos_turnaround_policy": null,
            "static_backend_latency": 10000,
            "static_frontend_latency": 10000,
            "system": "system",
            "write_high_thresh_perc": 85,
            "write_low_thresh_perc": 50,
            "port": {
                "role": "GEM5 RESPONDER",
                "peer": "system.membus.mem_side_ports[0]",
                "is_source": "False"
            }
        },
        "membus": {
            "type": "CoherentXBar",
            "cxx_class": "gem5::CoherentXBar",
            "name": "membus",
            "path": "system.membus",
            "clk_domain": "system.clk_domain",
            "eventq_index": 0,
            "forward_latency": 4,
            "frontend_latency": 3,
            "header_latency": 1,
            "max_outstanding_snoops": 512,
            "max_routing_table_size": 512,
            "point_of_coherency": true,
            "point_of_unification": true,
            "power_model": [],
            "power_state": {
                "type": "PowerState",
                "cxx_class": "gem5::PowerState",
                "name": "power_state",
                "path": "system.membus.power_state",
                "clk_gate_bins": 20,
                "clk_gate_max": 1000000000000,
                "clk_gate_min": 1000,
                "default_state": "UNDEFINED",
                "eventq_index": 0,
                "leaders": [],
                "possible_states": []
            },
            "response_latency": 2,
            "snoop_filter": {
                "type": "SnoopFilter",
                "cxx_class": "gem5::SnoopFilter",
                "name": "snoop_filter",
                "path": "system.membus.snoop_filter",
                "eventq_index": 0,
                "lookup_latency": 1,
                "max_capacity": 8388608,
                "system": "system"
            },
            "snoop_response_latency": 4,
            "system": "system",
            "use_default_range": false,
            "width": 16,
            "cpu_side_ports": {
                "role": "GEM5 RESPONDER",
                "peer": [
                    "system.cpu.icache.mem_side",
                    "system.cpu.dcache.mem_side",
                    "system.system_port"
                ],
                "is_source": "False"
            },
            "mem_side_ports": {
                "role": "GEM5 REQUESTOR",
                "peer": [
                    "system.mem_ctrl.port"
                ],
                "is_source": "True"
            }
        },
        "system_port": {
            "role": "GEM5 REQUESTOR",
            "peer": "system.membus.cpu_side_ports[2]",
            "is_source": "True"
        }
    }
}